# Blender v2.71 (sub 0) OBJ File: ''
# www.blender.org
mtllib PlaneLarge.mtl
o Plane
v -5.000000 0.000000 5.000000
v 5.000000 0.000000 5.000000
v -5.000000 0.000000 -5.000000
v 5.000000 0.000000 -5.000000
usemtl None
s off
f 1 2 4 3
